[
    {
        "command": "_FIN.TXT",
        "delete-command": false,
        "rules": [
            {
                "rule": "Test",
                "from": "",
                "to": ["rudolf.gilanik@starmedia.sk"],
                "cc": [],
                "bcc": [],
                "reply": [],
                "subject": "Fix subject",
                "body": "@ph1",
                "placeholders": {
                    "@ph1": "filehtml"
                },
                "send-as-html": true,
                "files": ["*_DONT_SEND_BODY_FINTest.html"],
                "command-done": "",
                "byone": true,
                "filters": {
                    "filename-root": [],
                    "filename-pos": [[]],
                    "folder-root": [],
                    "folder-pos-reversed": [[]],
                    "not-filename-root": [],
                    "not-filename-pos": [],
                    "not-folder-root": [],
                    "not-folder-pos-reversed": [[]]
                },
                "alert": ["rudolf.gilanik@starmedia.sk"],
                "reminder": ["rudolf.gilanik@starmedia.sk"],
                "reminder-sch": 24,
                "checkpoints": ["test"]
            }
        ]
    }
]